%YAML 1.1
%TAG !u! tag:unity3d.com,2011:
--- !u!74 &7400000
AnimationClip:
  m_ObjectHideFlags: 0
  m_CorrespondingSourceObject: {fileID: 0}
  m_PrefabInstance: {fileID: 0}
  m_PrefabAsset: {fileID: 0}
  m_Name: MysteriousMainCharacterSword
  serializedVersion: 6
  m_Legacy: 0
  m_Compressed: 0
  m_UseHighQualityCurve: 1
  m_RotationCurves: []
  m_CompressedRotationCurves: []
  m_EulerCurves: []
  m_PositionCurves: []
  m_ScaleCurves: []
  m_FloatCurves: []
  m_PPtrCurves:
  - curve:
    - time: 0
      value: {fileID: 21300000, guid: 3bc182c9f0029bc41bde1124fd13ab3b, type: 3}
    - time: 0.15
      value: {fileID: 21300000, guid: 2eef833246f2c424fa22846b6ba02509, type: 3}
    - time: 0.28333333
      value: {fileID: 21300000, guid: 7ba09831e87c1424b96be78fc0f5e3ba, type: 3}
    - time: 0.43333334
      value: {fileID: 21300000, guid: 67d74512dc849854ba38ef0fc92f2eaf, type: 3}
    - time: 0.56666666
      value: {fileID: 21300000, guid: 5effb83a71b7625468b97a6ea20077d6, type: 3}
    - time: 0.71666664
      value: {fileID: 21300000, guid: 7aed7933bfe70104b8c0cd1145426241, type: 3}
    - time: 0.85
      value: {fileID: 21300000, guid: d5ec1a0e47ee60948b3ce290283ed5cb, type: 3}
    - time: 1
      value: {fileID: 21300000, guid: ed6185708fb2f7e4d90f40a91b8ce5b4, type: 3}
    attribute: m_Sprite
    path: 
    classID: 212
    script: {fileID: 0}
  m_SampleRate: 60
  m_WrapMode: 0
  m_Bounds:
    m_Center: {x: 0, y: 0, z: 0}
    m_Extent: {x: 0, y: 0, z: 0}
  m_ClipBindingConstant:
    genericBindings:
    - serializedVersion: 2
      path: 0
      attribute: 0
      script: {fileID: 0}
      typeID: 212
      customType: 23
      isPPtrCurve: 1
    pptrCurveMapping:
    - {fileID: 21300000, guid: 3bc182c9f0029bc41bde1124fd13ab3b, type: 3}
    - {fileID: 21300000, guid: 2eef833246f2c424fa22846b6ba02509, type: 3}
    - {fileID: 21300000, guid: 7ba09831e87c1424b96be78fc0f5e3ba, type: 3}
    - {fileID: 21300000, guid: 67d74512dc849854ba38ef0fc92f2eaf, type: 3}
    - {fileID: 21300000, guid: 5effb83a71b7625468b97a6ea20077d6, type: 3}
    - {fileID: 21300000, guid: 7aed7933bfe70104b8c0cd1145426241, type: 3}
    - {fileID: 21300000, guid: d5ec1a0e47ee60948b3ce290283ed5cb, type: 3}
    - {fileID: 21300000, guid: ed6185708fb2f7e4d90f40a91b8ce5b4, type: 3}
  m_AnimationClipSettings:
    serializedVersion: 2
    m_AdditiveReferencePoseClip: {fileID: 0}
    m_AdditiveReferencePoseTime: 0
    m_StartTime: 0
    m_StopTime: 1.0166667
    m_OrientationOffsetY: 0
    m_Level: 0
    m_CycleOffset: 0
    m_HasAdditiveReferencePose: 0
    m_LoopTime: 1
    m_LoopBlend: 0
    m_LoopBlendOrientation: 0
    m_LoopBlendPositionY: 0
    m_LoopBlendPositionXZ: 0
    m_KeepOriginalOrientation: 0
    m_KeepOriginalPositionY: 1
    m_KeepOriginalPositionXZ: 0
    m_HeightFromFeet: 0
    m_Mirror: 0
  m_EditorCurves: []
  m_EulerEditorCurves: []
  m_HasGenericRootTransform: 0
  m_HasMotionFloatCurves: 0
  m_Events: []
