%YAML 1.1
%TAG !u! tag:unity3d.com,2011:
--- !u!74 &7400000
AnimationClip:
  m_ObjectHideFlags: 0
  m_CorrespondingSourceObject: {fileID: 0}
  m_PrefabInstance: {fileID: 0}
  m_PrefabAsset: {fileID: 0}
  m_Name: Skeleton_Run
  serializedVersion: 6
  m_Legacy: 0
  m_Compressed: 0
  m_UseHighQualityCurve: 1
  m_RotationCurves: []
  m_CompressedRotationCurves: []
  m_EulerCurves: []
  m_PositionCurves: []
  m_ScaleCurves: []
  m_FloatCurves: []
  m_PPtrCurves:
  - curve:
    - time: 0
      value: {fileID: 21300000, guid: 7e18274d29d29f441a35cc6170a18e86, type: 3}
    - time: 0.083333336
      value: {fileID: 21300000, guid: e29a35d066527a34abaca0ea4291fbef, type: 3}
    - time: 0.21666667
      value: {fileID: 21300000, guid: 6004f63a7daac034daa6341e468e57ed, type: 3}
    - time: 0.33333334
      value: {fileID: 21300000, guid: acc2faee23338b848b9339edd9f5332b, type: 3}
    - time: 0.45
      value: {fileID: 21300000, guid: 2245064991de34e4790809572f400202, type: 3}
    - time: 0.5833333
      value: {fileID: 21300000, guid: ddd5e3bf1f791534fa4fff3741b61d00, type: 3}
    - time: 0.6666667
      value: {fileID: 21300000, guid: 48af94a6d925b044ab15ba97647a4995, type: 3}
    - time: 0.75
      value: {fileID: 21300000, guid: 31ada3224cf9e0049919f7e509e0476f, type: 3}
    - time: 0.8833333
      value: {fileID: 21300000, guid: e23b03b179e18a248be5b027d61fa341, type: 3}
    - time: 1
      value: {fileID: 21300000, guid: dfea75ee441f4f941ac0f5a1f975cd0e, type: 3}
    attribute: m_Sprite
    path: 
    classID: 212
    script: {fileID: 0}
  m_SampleRate: 60
  m_WrapMode: 0
  m_Bounds:
    m_Center: {x: 0, y: 0, z: 0}
    m_Extent: {x: 0, y: 0, z: 0}
  m_ClipBindingConstant:
    genericBindings:
    - serializedVersion: 2
      path: 0
      attribute: 0
      script: {fileID: 0}
      typeID: 212
      customType: 23
      isPPtrCurve: 1
    pptrCurveMapping:
    - {fileID: 21300000, guid: 7e18274d29d29f441a35cc6170a18e86, type: 3}
    - {fileID: 21300000, guid: e29a35d066527a34abaca0ea4291fbef, type: 3}
    - {fileID: 21300000, guid: 6004f63a7daac034daa6341e468e57ed, type: 3}
    - {fileID: 21300000, guid: acc2faee23338b848b9339edd9f5332b, type: 3}
    - {fileID: 21300000, guid: 2245064991de34e4790809572f400202, type: 3}
    - {fileID: 21300000, guid: ddd5e3bf1f791534fa4fff3741b61d00, type: 3}
    - {fileID: 21300000, guid: 48af94a6d925b044ab15ba97647a4995, type: 3}
    - {fileID: 21300000, guid: 31ada3224cf9e0049919f7e509e0476f, type: 3}
    - {fileID: 21300000, guid: e23b03b179e18a248be5b027d61fa341, type: 3}
    - {fileID: 21300000, guid: dfea75ee441f4f941ac0f5a1f975cd0e, type: 3}
  m_AnimationClipSettings:
    serializedVersion: 2
    m_AdditiveReferencePoseClip: {fileID: 0}
    m_AdditiveReferencePoseTime: 0
    m_StartTime: 0
    m_StopTime: 1.0166667
    m_OrientationOffsetY: 0
    m_Level: 0
    m_CycleOffset: 0
    m_HasAdditiveReferencePose: 0
    m_LoopTime: 1
    m_LoopBlend: 0
    m_LoopBlendOrientation: 0
    m_LoopBlendPositionY: 0
    m_LoopBlendPositionXZ: 0
    m_KeepOriginalOrientation: 0
    m_KeepOriginalPositionY: 1
    m_KeepOriginalPositionXZ: 0
    m_HeightFromFeet: 0
    m_Mirror: 0
  m_EditorCurves: []
  m_EulerEditorCurves: []
  m_HasGenericRootTransform: 0
  m_HasMotionFloatCurves: 0
  m_Events: []
